%YAML 1.1
%TAG !u! tag:unity3d.com,2011:
--- !u!1045 &1
EditorBuildSettings:
  m_ObjectHideFlags: 0
  serializedVersion: 2
  m_Scenes:
  - enabled: 0
    path: 
    guid: 00000000000000000000000000000000
  - enabled: 1
    path: Assets/_Game/Scenes/MainScene.unity
    guid: dc5a7cbe4d1de504b9f36594539358c9
  - enabled: 0
    path: 
    guid: 00000000000000000000000000000000
  m_configObjects: {}
